…
#> 1835 2025-05-01 03:54:05 2025-05-20             NA              20  0.0720
#> 1836 2025-05-01 03:54:05 2025-07-08             NA              69  0.334 
#> 1837 2025-05-01 03:54:05 2025-08-12             NA             104  0.396 
#> 1838 2025-05-01 03:54:05 2025-09-30             NA             153  0.627 
#> 1839 2025-05-01 03:54:05 2025-11-04             NA             188  0.737 
#> 1840 2025-05-01 03:54:05 2025-12-09             NA             223  0.846 
#> 1841 2025-05-01 05:21:08 2025-02-18             NA             -71 NA     
#> 1842 2025-05-01 05:21:08 2025-04-01             NA             -29 NA     
#> 1843 2025-05-01 05:21:08 2025-05-20             NA              20  0.0720
#> 1844 2025-05-01 05:21:08 2025-07-08             NA              69  0.334 
#> 1845 2025-05-01 05:21:08 2025-08-12             NA             104  0.396 
#> 1846 2025-05-01 05:21:08 2025-09-30             NA             153  0.627 
#> 1847 2025-05-01 05:21:08 2025-11-04             NA             188  0.737 
#> 1848 2025-05-01 05:21:08 2025-12-09             NA             223  0.846 
#> # A tibble: 38,808 × 11
#>    scrape_time         meeting_date implied_mean stdev days_to_meeting bucket
#>    <dttm>              <date>              <dbl> <dbl>           <int>  <dbl>
#>  1 2025-04-01 12:00:00 2025-02-18             NA    NA             -42   0.1 
#>  2 2025-04-01 12:00:00 2025-02-18             NA    NA             -42   0.35
#>  3 2025-04-01 12:00:00 2025-02-18             NA    NA             -42   0.6 
#>  4 2025-04-01 12:00:00 2025-02-18             NA    NA             -42   0.85
#>  5 2025-04-01 12:00:00 2025-02-18             NA    NA             -42   1.1 
#>  6 2025-04-01 12:00:00 2025-02-18             NA    NA             -42   1.35
#>  7 2025-04-01 12:00:00 2025-02-18             NA    NA             -42   1.6 
#>  8 2025-04-01 12:00:00 2025-02-18             NA    NA             -42   1.85
#>  9 2025-04-01 12:00:00 2025-02-18             NA    NA             -42   2.1 
#> 10 2025-04-01 12:00:00 2025-02-18             NA    NA             -42   2.35
#> 11 2025-04-01 12:00:00 2025-02-18             NA    NA             -42   2.6 
#> 12 2025-04-01 12:00:00 2025-02-18             NA    NA             -42   2.85
#> 13 2025-04-01 12:00:00 2025-02-18             NA    NA             -42   3.1 
#> 14 2025-04-01 12:00:00 2025-02-18             NA    NA             -42   3.35
#> 15 2025-04-01 12:00:00 2025-02-18             NA    NA             -42   3.6 
#> 16 2025-04-01 12:00:00 2025-02-18             NA    NA             -42   3.85
#> 17 2025-04-01 12:00:00 2025-02-18             NA    NA             -42   4.1 
#> 18 2025-04-01 12:00:00 2025-02-18             NA    NA             -42   4.35
#> 19 2025-04-01 12:00:00 2025-02-18             NA    NA             -42   4.6 
#> 20 2025-04-01 12:00:00 2025-02-18             NA    NA             -42   4.85
#>    probability_linear probability_prob probability   diff diff_s
#>                 <dbl>            <dbl>       <dbl>  <dbl>  <dbl>
#>  1                 NA               NA          NA -4     -1.41 
#>  2                 NA               NA          NA -3.75  -1.39 
#>  3                  0               NA          NA -3.5   -1.37 
#>  4                  0               NA          NA -3.25  -1.34 
#>  5                  0               NA          NA -3     -1.32 
#>  6                  0               NA          NA -2.75  -1.29 
#>  7                  0               NA          NA -2.5   -1.26 
#>  8                  0               NA          NA -2.25  -1.22 
#>  9                  0               NA          NA -2     -1.19 
#> 10                  0               NA          NA -1.75  -1.15 
#> 11                  0               NA          NA -1.5   -1.11 
#> 12                  0               NA          NA -1.25  -1.06 
#> 13                  0               NA          NA -1     -1    
#> 14                  0               NA          NA -0.750 -0.931
#> 15                  0               NA          NA -0.500 -0.841
#> 16                  0               NA          NA -0.250 -0.707
#> 17                  0               NA          NA  0      0    
#> 18                  0               NA          NA  0.25   0.707
#> 19                  0               NA          NA  0.5    0.841
#> 20                  0               NA          NA  0.75   0.931
#> # ℹ 38,788 more rows
…
