…
I offer no assurance that this will continue to work, or that the data
extracted using this script will be free of errors.

The `.github/workflows/refresh_data.yaml` file contains the instructions
to GitHub Actions to tell it to run `scrape_cash_rate.R` each day and
commit the results in this repo.

Please fork/copy/modify as you see fit.

# Graphs!

The file `R/viz_cash_rate.R` produces visualisations of this data, which
are shown below:

    #> # A tibble: 1,079 × 5
    #>    scrape_time         meeting_date implied_mean days_to_meeting  stdev
    #>    <dttm>              <date>              <dbl>           <int>  <dbl>
    #>  1 2025-05-20 01:27:59 2025-05-20           3.87               1 0.0639
    #>  2 2025-05-20 01:27:59 2025-07-08           3.76              50 0.210 
    #>  3 2025-05-20 01:27:59 2025-08-12           3.60              85 0.389 
    #>  4 2025-05-20 01:27:59 2025-09-30           3.51             134 0.468 
    #>  5 2025-05-20 01:27:59 2025-11-04           3.40             169 0.678 
    #>  6 2025-05-20 01:27:59 2025-12-09           3.31             204 0.768 
    #>  7 2025-05-20 01:27:59 2026-02-03           3.03             260 0.941 
    #>  8 2025-05-20 01:27:59 2026-03-17           2.71             302 1.06  
    #>  9 2025-05-20 01:27:59 2026-05-05           2.86             351 1.06  
    #> 10 2025-05-20 01:27:59 2026-06-16           2.82             393 1.09  
    #> # ℹ 1,069 more rows
…
